## Interface: 100205
## Version: 1.0.0
## Title: Raid Frames Augumentation
## Notes: Highlights highest damage dealers
## Author: GrzeGurz

LibCustomGlow-1.0/LibCustomGlow-1.0.xml

RaidFramesAugumentation.lua